42001,,Dobova,,45.89839166,15.65468333,,,,
42002,,Brežice,,45.92372222,15.58983611,,,,
42003,,Libna,,45.94550277,15.54035833,,,,
42004,,Krško,,45.95625833,15.49355000,,,,
42005,,Brestanica,,45.98777500,15.46949166,,,,
42006,,Blanca,,45.98971944,15.39579444,,,,
42100,,Sevnica,,46.00967777,15.30134166,,,,
42101,,Breg,,46.04180000,15.23556944,,,,
42102,,Loka,,46.05358611,15.20567500,,,,
42103,,Radeče,,46.06443055,15.19220555,,,,
42200,,Zidani Most,,46.08546111,15.17064444,,,,
42201,,Hrastnik,,46.12268888,15.09358055,,,,
42203,,Trbovlje,,46.12641111,15.03671388,,,,
42204,,Zagorje,,46.12077500,14.99102222,,,,
42206,,Sava,,46.08901944,14.89902500,,,,
42207,,Litija,,46.05794722,14.82524166,,,,
42208,,Kresnice,,46.10300000,14.79116666,,,,
42209,,Jevnica,,46.08402500,14.73675833,,,,
42210,,Laze,,46.08805000,14.68766944,,,,
42212,,Ljubljana Polje,,46.05883333,14.58470833,,,,
42222,,Ljubljana Zalog,,46.05975555,14.61536111,,,,
42300,,Ljubljana,,46.05810833,14.51027777,,,,
42302,,Ljubljana Vižmarje,,46.10039722,14.46446944,,,,
42303,,Medno,,46.12214444,14.43905277,,,,
42304,,Medvode,,46.13806111,14.41228888,,,,
42305,,Reteče,,46.15663333,14.37120555,,,,
42306,,Škofja Loka,,46.17423888,14.33554444,,,,
42307,,Kranj,,46.23900277,14.34844166,,,,
42309,,Podnart,,46.29386944,14.25827222,,,,
42310,,Otoče,,46.31110000,14.23265833,,,,
42311,,Globoko,,46.32321388,14.20844444,,,,
42312,,Radovljica,,46.34055833,14.17382500,,,,
42313,,Lesce-Bled,,46.36043333,14.15809166,,,,
42314,,Žirovnica,,46.40188055,14.13547500,,,,
42315,,Slovenski Javornik,,46.42714166,14.08813888,,,,
42316,,Litostroj,,46.07736388,14.48971944,,,,
42317,,Ljubljana Stegne,,46.08680555,14.47997777,,,,
42351,,Ljubljana Črnuče,,46.10117500,14.52625277,,,,
42352,,Domžale,,46.13927500,14.59249444,,,,
42353,,Jarše-Mengeš,,46.16569166,14.59395277,,,,
42354,,Kamnik,,46.22070277,14.60375000,,,,
42355,,Kamnik mesto,,46.22479166,14.60916111,,,,
42356,,Kamnik Graben,,46.22875833,14.60950277,,,,
42357,,Ljubljana Brinje,,46.07625000,14.50301111,,,,
42358,,Trzin Mlake,,46.12860277,14.55966944,,,,
42359,,Trzin,,46.13283611,14.56758888,,,,
42360,,Rodica,,46.14903055,14.59242500,,,,
42361,,Homec pri Kamniku,,46.17986388,14.59069166,,,,
42362,,Šmarca,,46.19309722,14.58860833,,,,
42363,,Duplica-Bakovnik,,46.20603611,14.59435000,,,,
42365,,Ljubljana Ježica,,46.08985555,14.50739166,,,,
42366,,Trzin ind. cona,,46.11890555,14.55093055,,,,
42400,,Jesenice,,46.43639722,14.05484166,,,,
42501,,Rosalnice,,45.64887500,15.33626944,,,,
42502,,Metlika,,45.64255833,15.32285833,,,,
42503,,Dobravice,,45.63229722,15.26974722,,,,
42504,,Gradac,,45.61435277,15.24145833,,,,
42505,,Črnomelj,,45.57983611,15.19115000,,,,
42506,,Otovec,,45.59886666,15.16174166,,,,
42507,,Semič,,45.64316944,15.16172222,,,,
42508,,Rožni Dol,,45.68185000,15.14852222,,,,
42509,,Uršna sela,,45.71448055,15.12766944,,,,
42510,,Birčna vas,,45.75782777,15.14759444,,,,
42511,,Novo mesto Kandija,,45.79977777,15.16079166,,,,
42512,,Novo mesto Center,,45.80446388,15.16213055,,,,
42600,,Novo mesto,,45.81097222,15.15589722,,,,
42601,,Mirna Peč,,45.86661111,15.09140555,,,,
42602,,Ponikve na Dolenjskem,,45.89769444,15.04266388,,,,
42603,,Hudo,,45.83380000,15.13620277,,,,
42700,,Trebnje,,45.90696666,15.00857222,,,,
42701,,Štefan,,45.91270555,14.98021388,,,,
42702,,Velika Loka,,45.93216944,14.96951666,,,,
42703,,Šentlovrenc,,45.93806944,14.94092500,,,,
42704,,Gaber,,45.94059444,14.90927777,,,,
42705,,Radohova vas,,45.94342777,14.87303055,,,,
42706,,Šentvid pri Stični,,45.94083055,14.84989166,,,,
42707,,Ivančna Gorica,,45.93816111,14.80307222,,,,
42708,,Polževo,,45.94071388,14.77905555,,,,
42709,,Višnja Gora,,45.95797222,14.74231666,,,,
42710,,Žalna,,45.93973055,14.70753611,,,,
42711,,Mlačevo,,45.94025000,14.68511388,,,,
42800,,Grosuplje,,45.95606666,14.65251111,,,,
42801,,Šmarje-Sap,,45.97497222,14.61757222,,,,
42802,,Škofljica,,45.98448333,14.57296111,,,,
42804,,Ljubljana Rakovnik,,46.03709444,14.51898333,,,,
42805,,Ljubljana Vodmat,,46.05579444,14.52913055,,,,
42901,,Boštanj,,46.00739444,15.28987500,,,,
42902,,Jelovec,,45.98932222,15.23979722,,,,
42903,,Tržišče,,45.96668055,15.19080277,,,,
42904,,Pijavice,,45.96829444,15.16329444,,,,
42905,,Mokronog,,45.95785277,15.12159166,,,,
42906,,Šentrupert,,45.95957222,15.08767222,,,,
42907,,Mirna,,45.94938333,15.06241388,,,,
42908,,Gomila,,45.93474166,15.04493611,,,,
42909,,Trebnje Kamna Gora,,45.90611944,15.02447222,,,,
43001,,Rimske Toplice,,46.12351944,15.20292222,,,,
43002,,Laško,,46.15453611,15.23225833,,,,
43100,,Celje,,46.22852500,15.26788055,,,,
43101,,Štore,,46.22153888,15.32192777,,,,
43102,,Šentjur,,46.21318055,15.39624444,,,,
43200,,Grobelno,,46.21299722,15.43974166,,,,
43201,,Ponikva,,46.24786388,15.43077777,,,,
43202,,Dolga Gora,,46.27751388,15.49818333,,,,
43203,,Poljčane,,46.31350833,15.57680277,,,,
43204,,Slovenska Bistrica,,46.36333611,15.59808055,,,,
43205,,Ostrožno,,46.26401111,15.47288611,,,,
43251,,Šentvid pri Grobelnem,,46.22745555,15.47023888,,,,
43252,,Šmarje pri Jelšah,,46.23052500,15.51690000,,,,
43300,,Pragersko,,46.39546111,15.66195000,,,,
43301,,Rače,,46.45349722,15.66400277,,,,
43302,,Orehova vas,,46.47308888,15.66355277,,,,
43303,,Hoče,,46.50098333,15.66306944,,,,
43304,,Maribor Tezno,,46.53905833,15.65128611,,,,
43351,,Cirkovce,,46.40089722,15.72437500,,,,
43352,,Strnišče,,46.40070000,15.77048611,,,,
43353,,Kidričevo,,46.40088611,15.80045833,,,,
43354,,Hajdina,,46.40311388,15.85518611,,,,
43355,,Ptuj,,46.42238888,15.87872222,,,,
43356,,Moškanjci,,46.42316944,15.98362222,,,,
43357,,Osluševci,,46.41938888,16.04798055,,,,
43358,,Velika Nedelja,,46.41519722,16.10500555,,,,
43359,,Zamušani,,46.42138055,16.01635833,,,,
43360,,Šikole,,46.40092222,15.69696388,,,,
43400,,Maribor,,46.56189444,15.65749722,,,,
43401,,Maribor Studenci,,46.55441388,15.63528611,,,,
43402,,Limbuš,,46.55891388,15.58295000,,,,
43403,,Bistrica ob Dravi,,46.55758888,15.55424444,,,,
43404,,Ruše,,46.54079444,15.50394722,,,,
43405,,Fala,,46.54810833,15.45150277,,,,
43406,,Ruta,,46.56310833,15.43163055,,,,
43407,,Ožbalt,,46.57491388,15.40646666,,,,
43408,,Podvelka,,46.59000277,15.32941666,,,,
43409,,Vuhred elektrarna,,46.58647222,15.27984444,,,,
43410,,Vuhred,,46.59639444,15.23602777,,,,
43411,,Vuzenica,,46.59377777,15.15837777,,,,
43412,,Trbonje,,46.59381666,15.12625555,,,,
43413,,Maribor Tabor,,46.55178055,15.64546666,,,,
43414,,Marles,,46.55886666,15.59720555,,,,
43415,,Ruše tovarna,,46.54496666,15.51478333,,,,
43416,,Trbonjsko jezero,,46.59492500,15.12464444,,,,
43417,,Sveti Danijel,,46.60259166,15.06366944,,,,
43418,,Sveti Vid,,46.61168611,15.18827500,,,,
43420,,Maribor Sokolska,,46.55642500,15.62487500,,,,
43451,,Pesnica,,46.60985277,15.68030555,,,,
43452,,Cirknica,,46.66122500,15.65912222,,,,
43453,,Šentilj,,46.67415833,15.65788333,,,,
43455,,Košaki,,46.57590277,15.65783611,,,,
43500,,Dravograd,,46.58710277,15.02679722,,,,
43501,,Ravne na Koroškem,,46.54700000,14.96336944,,,,
43502,,Prevalje,,46.54989166,14.92181111,,,,
43503,,Holmec,,46.56637777,14.84136944,,,,
43505,,Podklanc,,46.57411944,15.00577222,,,,
43506,,Dobrije,,46.55153333,14.99079722,,,,
43600,,Ormož,,46.40322777,16.15620000,,,,
43601,,Pušenci,,46.40972777,16.17632777,,,,
43602,,Pavlovci,,46.42643333,16.17948888,,,,
43603,,Ivanjkovci,,46.45860000,16.15649722,,,,
43604,,Mekotnjak,,46.50098888,16.15521666,,,,
43605,,Ljutomer mesto,,46.52097222,16.19960555,,,,
43651,,Obrež,,46.39089722,16.22572222,,,,
43652,,Središče,,46.38922777,16.27715833,,,,
43653,,Frankovci,,46.39489722,16.19528611,,,,
43700,,Ljutomer,,46.52877500,16.18928611,,,,
43701,,Veržej,,46.57425277,16.18205277,,,,
43702,,Grlava,,46.55707500,16.17402222,,,,
43703,,Lipovci,,46.62373611,16.21151388,,,,
43704,,Murska Sobota,,46.65939166,16.17159722,,,,
43771,,Puconci,,46.70333055,16.15368055,,,,
43774,,Mačkovci,,46.78331388,16.16471666,,,,
43775,,Gornji Petrovci,,46.80072777,16.21832777,,,,
43776,,Šalovci,,46.82114444,16.28208888,,,,
43777,,Hodoš,,46.82034722,16.32940277,,,,
43800,,Stranje,,46.21725000,15.55995277,,,,
43801,,Mestinje,,46.23505000,15.56426666,,,,
43802,,Podplat,,46.24415555,15.57311944,,,,
43803,,Rogaška Slatina,,46.23184722,15.63829722,,,,
43804,,Rogatec,,46.22458611,15.69792222,,,,
43805,,Dobovec,,46.22074166,15.75161666,,,,
43806,,Sveti Rok ob Sotli,,46.20893055,15.76005555,,,,
43807,,Tekačevo,,46.24037777,15.61839444,,,,
43808,,Rjavica,,46.21978611,15.65228888,,,,
43809,,Vidina,,46.21675277,15.72971666,,,,
43851,,Pristava,,46.19875000,15.58181944,,,,
43852,,Sodna vas,,46.17592500,15.60185277,,,,
43853,,Podčetrtek,,46.15036666,15.59956666,,,,
43854,,Imeno,,46.12697777,15.60086111,,,,
43855,,Podčetrtek Toplice,,46.16587222,15.60478888,,,,
43856,,Atomske Toplice hotel,,46.15815000,15.60853888,,,,
43901,,Petrovče,,46.24595277,15.18968611,,,,
43902,,Žalec,,46.24969166,15.16627222,,,,
43903,,Šempeter v Savinjski dolini,,46.26046388,15.11215833,,,,
43904,,Polzela,,46.28269722,15.06604444,,,,
43905,,Šmartno ob Paki,,46.32798611,15.03771388,,,,
43906,,Paška vas,,46.34150833,15.01978333,,,,
43907,,Šoštanj,,46.37669444,15.04955833,,,,
43909,,Velenje Pesje,,46.36805277,15.08127222,,,,
43910,,Velenje,,46.36337222,15.10413333,,,,
43911,,Celje Lava,,46.23656388,15.25959444,,,,
43912,,Florjan,,46.38116111,15.03006666,,,,
44001,,Brezovica,,46.02151388,14.42640277,,,,
44002,,Notranje Gorice,,45.98758888,14.40243611,,,,
44003,,Preserje,,45.96565000,14.39636666,,,,
44004,,Borovnica,,45.92138888,14.36772222,,,,
44005,,Verd,,45.94790555,14.30415277,,,,
44006,,Logatec,,45.91775277,14.23546944,,,,
44007,,Planina,,45.86163611,14.27482777,,,,
44008,,Rakek,,45.81517777,14.31281388,,,,
44009,,Postojna,,45.77306666,14.22131666,,,,
44010,,Prestranek,,45.72861388,14.18531388,,,,
44011,,Ljubljana Tivoli,,46.05020833,14.49403611,,,,
44100,,Pivka,,45.67516666,14.19148333,,,,
44101,,Košana,,45.67060000,14.10573888,,,,
44102,,Gornje Ležeče,,45.66636944,14.07200277,,,,
44200,,Divača,,45.68181666,13.96476944,,,,
44201,,Rodik,,45.62707500,13.97533333,,,,
44202,,Hrpelje-Kozina,,45.60376666,13.93485555,,,,
44251,,Povir,,45.69943055,13.93055833,,,,
44300,,Prešnica,,45.57048333,13.94099722,,,,
44301,,Podgorje,,45.53438055,13.94301388,,,,
44303,,Rakitovec,,45.46595555,13.95549722,,,,
44352,,Koper,,45.53932500,13.73835000,,,,
44356,,Črnotiče,,45.55213888,13.89161388,,,,
44357,,Hrastovlje,,45.50113055,13.90942777,,,,
44500,,Sežana,,45.70424166,13.86353055,,,,
44501,,Kreplje,,45.74207777,13.82742777,,,,
44502,,Kopriva,,45.78485000,13.83182777,,,,
44503,,Štanjel,,45.81785833,13.84794722,,,,
44504,,Branik,,45.85601944,13.78427777,,,,
44505,,Steske,,45.87610555,13.75757500,,,,
44506,,Dornberk,,45.88587777,13.73386111,,,,
44600,,Prvačina,,45.88769166,13.72275555,,,,
44601,,Okroglica,,45.89923333,13.69031944,,,,
44602,,Volčja Draga,,45.90585555,13.67576944,,,,
44603,,Šempeter pri Gorici,,45.92821944,13.64681666,,,,
44651,,Batuje,,45.88741944,13.76984166,,,,
44652,,Ajdovščina,,45.88608611,13.90019722,,,,
44653,,Dornberk vas,,45.88989722,13.73630000,,,,
44654,,Kamnje,,45.87685000,13.81746388,,,,
44655,,Dobravlje,,45.88259166,13.84531666,,,,
44656,,Cesta,,45.88692777,13.86537500,,,,
44700,,Nova Gorica,,45.95512222,13.63525833,,,,
44701,,Solkan,,45.97260000,13.64631666,,,,
44703,,Plave,,46.04616388,13.58996944,,,,
44704,,Anhovo,,46.06311388,13.62590277,,,,
44705,,Kanal,,46.08376944,13.63181111,,,,
44706,,Avče,,46.10811944,13.68433611,,,,
44707,,Most na Soči,,46.14657500,13.75952500,,,,
44708,,Podmelec,,46.15949722,13.81390555,,,,
44709,,Grahovo,,46.15156944,13.85696666,,,,
44710,,Hudajužna,,46.17980833,13.91960833,,,,
44711,,Podbrdo,,46.20928055,13.96676944,,,,
44712,,Bohinjska Bistrica,,46.27435277,13.95885000,,,,
44713,,Nomenj,,46.28918888,14.00254722,,,,
44715,,Bohinjska Bela,,46.33840555,14.06025277,,,,
44716,,Bled Jezero,,46.36818611,14.08256944,,,,
44717,,Podhom,,46.38756111,14.09418333,,,,
44718,,Vintgar,,46.41022777,14.09871111,,,,
44719,,Kočna,,46.42385277,14.07866111,,,,
44800,,Dutovlje,,45.76478888,13.82634722,,,,
44901,,Narin,,45.64127777,14.19804166,,,,
44902,,Kilovče,,45.61553611,14.18594722,,,,
44903,,Ilirska Bistrica,,45.56938333,14.23605555,,,,